<svg id="_" xmlns="http://www.w3.org/2000/svg" width="12" height="12" viewBox="0 0 3.175 3.175">
	<style>
		path { stroke: #070605; }
		@media (prefers-color-scheme: dark) { path { stroke: #fefdfb; } }
	</style>
	<g fill="none" stroke="currentColor" stroke-linecap="round" stroke-linejoin="round">
		<path stroke-width=".26458" d="M.132 3.118h2.91" />
		<path stroke-width=".26458" d="M.132 2.324h2.91L1.588.207z"/>
	</g>
</svg>
