<svg id="_" xmlns="http://www.w3.org/2000/svg" width="12" height="12" viewBox="0 0 3.175 3.175">
	<g fill="none" stroke="#fefdfb" stroke-linecap="round" stroke-miterlimit="2" stroke-width=".265">
		<circle cx="2.117" cy="1.587" r=".926"/>
		<circle cx="1.058" cy="1.588" r=".926"/>
	</g>
</svg>
