<svg height="16" id="_" viewBox="0 0 16 16" width="16" xmlns="http://www.w3.org/2000/svg">
	<defs>
		<path d="M4.09 0C3.005 0 1.96.432 1.193 1.2a4.116 4.116 0 0 0-.026 5.765l.025.026.008-.006-.007.007L5.11 10.91a.988.988 0 0 0 1.399 0l.017-.018a.998.998 0 0 0-.017-1.374l-.007.007.007-.008-3.92-3.918a2.137 2.137 0 0 1 0-3.005l.073-.068a2.131 2.131 0 0 1 2.928.068.998.998 0 0 0 1.38.018l.02-.018a.998.998 0 0 0 .017-1.376L6.99 1.2A4.105 4.105 0 0 0 4.092 0Z" fill="#fefdfb" id="j"/>
	</defs>
	<use href="#j"/>
	<use href="#j" transform="rotate(90 7 11)" x="-4" y="2"/>
	<use href="#j" transform="rotate(180 7 11)" x="-2" y="6"/>
	<use href="#j" transform="rotate(270 7 11)" x="2" y="4"/>
</svg>
